<svg xmlns="http://www.w3.org/2000/svg" width="95" height="82" viewBox="0 0 95 82">
    <g fill="none" fill-rule="evenodd">
        <g fill-rule="nonzero" transform="translate(-1 -1)">
            <path fill="#231F20" d="M86.28 51.599l4.962 2.308c.498.168 1.039.023 1.412-.378a1.7 1.7 0 0 0 .385-1.55c-.136-.556-.533-.987-1.038-1.124l-4.963-2.309c-.752-.205-1.515.29-1.72 1.118-.206.827.221 1.685.962 1.935zM90.114 33.604c1.455-.3 2.909-.637 4.346-1.008 1.691-.424 1.015-3.251-.744-2.827a91.296 91.296 0 0 1-4.346 1.007c-1.69.371-1.014 3.199.744 2.828zM76.82 72.475l2.783 5.058c.383.67 1.217.893 1.865.497.647-.396.862-1.26.48-1.93l-2.8-5.057a1.324 1.324 0 0 0-1.82-.447c-.624.38-.848 1.2-.509 1.863v.016zM9.965 50.104l-5.157 1.29c-.675.254-1.039.943-.845 1.6.194.657.883 1.073 1.601.965l5.158-1.274c.74-.212 1.165-.937.96-1.636-.205-.7-.966-1.119-1.717-.945zM7.622 30.776c-1.45-.3-2.9-.636-4.333-1.007-1.686-.424-2.496 2.386-.742 2.827 1.433.371 2.883.707 4.334 1.008 1.686.37 2.495-2.457.741-2.828zM17.838 71.048l-2.816 5.104c-.342.668-.116 1.496.512 1.88a1.33 1.33 0 0 0 1.83-.451l2.816-5.104c.341-.667.115-1.496-.512-1.88a1.33 1.33 0 0 0-1.83.451z"/>
            <path fill="#00ADD5" d="M75.069 56.2C69.19 67.536 59.837 76.637 48.412 82.138c-1.116-.556-19.042-9.96-28.139-25.902-9.363-16.5-11.262-38.34-10.83-39.048.434-.708 27.857-5.865 38.32-15.622l.083.084c10.446 9.707 37.819 14.88 38.168 15.538.35.657-1.915 20.644-10.945 39.014z"/>
            <path fill="#008BAB" d="M75.338 55.644c-5.778 11.235-14.97 20.257-26.2 25.71L48.5 1.565c10.267 9.623 37.17 14.752 37.514 15.404.344.651-1.801 20.465-10.676 38.676z"/>
            <circle cx="47.718" cy="38.331" r="19.556" fill="#FFF"/>
            <path fill="#00ADD5" d="M36.632 41.376c2.488 2.84 5.078 6.854 9.344 5.154 2.454-1 4.689-3.331 6.873-4.856a115.093 115.093 0 0 1 7.752-4.926 2.53 2.53 0 0 0 1.197-2.183 2.527 2.527 0 0 0-1.227-2.165 2.352 2.352 0 0 0-2.424.018 112.571 112.571 0 0 0-9.615 6.258c-.897.649-2.929 2.928-3.995 2.998-1.794.105-3.386-2.665-4.486-3.857-2.099-2.384-5.535 1.175-3.385 3.506l-.034.053z"/>
        </g>
        <path d="M-1-8h97v97H-1z"/>
    </g>
</svg>
